example/signals.vcd
$date
   Thu Jan  1 00:00:00 1970
$end
$timescale
   1ns
$end
$version
   C++ Simple VCD Logger
$end
$scope module root $end
$scope module digital $end
$var wire 1 ! clk $end
$scope module bus $end
$var wire 1 # clk $end
$var wire 16 $ addr $end
$var wire 32 % data $end
$var wire 4 & burst $end
$var wire 1 ' wr_strb $end
$upscope $end
$upscope $end
$scope module analog $end
$var real 64 " wave $end
$upscope $end
$upscope $end
$enddefinitions $end
#0
x!
r6.910777109229929e-310 "
x#
bx $
bx %
bx &
x'
0!
r5 "
0#
b0 $
b0 %
b01 &
1!
r5.028274147845015 "
#1
0!
r5.056547179475086 "
1#
#2
1!
r5.084817978719337 "
#3
0!
r5.113085429495019 "
0#
#4
1!
r5.141348415851577 "
#5
0!
r5.169605822014706 "
1#
#6
1!
r5.197856532430392 "
#7
0!
r5.226099431808963 "
0#
#8
1!
r5.254333405169111 "
#9
0!
r5.28255733788191 "
1#
#10
1!
r5.310770115714826 "
#11
0!
r5.338970624875698 "
0#
#12
1!
r5.367157752056709 "
#13
0!
r5.395330384478345 "
1#
#14
1!
r5.423487409933315 "
#15
0!
r5.451627716830467 "
0#
#16
1!
r5.47975019423867 "
#17
0!
r5.507853731930668 "
1#
#18
1!
r5.535937220426914 "
#19
0!
r5.56399955103937 "
0#
b010100 $
b011100100000010110010100001011 %
1'
#20
1!
r5.592039615915271 "
0'
#21
0!
r5.620056308080871 "
1#
#22
1!
r5.648048521485134 "
#23
0!
r5.676015151043407 "
0#
#24
1!
r5.703955092681039 "
#25
0!
r5.731867243376977 "
1#
#26
1!
r5.759750501207303 "
#27
0!
r5.787603765388742 "
0#
#28
1!
r5.815425936322118 "
#29
0!
r5.843215915635761 "
1#
#30
1!
r5.870972606228871 "
#31
0!
r5.898694912314832 "
0#
#32
1!
r5.926381739464466 "
#33
0!
r5.954031994649246 "
1#
#34
1!
r5.981644586284442 "
#35
0!
r6.009218424272215 "
0#
#36
1!
r6.036752420044658 "
#37
0!
r6.064245486606762 "
1#
#38
1!
r6.091696538579334 "
#39
0!
r6.119104492241846 "
0#
#40
1!
r6.146468265575219 "
#41
0!
r6.173786778304536 "
1#
#42
1!
r6.20105895194169 "
#43
0!
r6.228283709827964 "
0#
#44
1!
r6.255459977176532 "
#45
0!
r6.282586681114893 "
1#
#46
1!
r6.309662750727224 "
#47
0!
r6.336687117096657 "
0#
#48
1!
r6.363658713347482 "
#49
0!
r6.390576474687263 "
1#
#50
1!
r6.417439338448871 "
#51
0!
r6.444246244132443 "
0#
#52
1!
r6.470996133447241 "
#53
0!
r6.497687950353439 "
1#
#54
1!
r6.524320641103811 "
#55
0!
r6.550893154285327 "
0#
#56
1!
r6.577404440860666 "
#57
0!
r6.603853454209628 "
1#
#58
1!
r6.630239150170455 "
#59
0!
r6.656560487081051 "
0#
#60
1!
r6.682816425820102 "
#61
0!
r6.709005929848105 "
1#
#62
1!
r6.735127965248285 "
#63
0!
r6.761181500767411 "
0#
#64
1!
r6.787165507856512 "
#65
0!
r6.813078960711482 "
1#
#66
1!
r6.838920836313571 "
#67
0!
r6.864690114469779 "
0#
#68
1!
r6.890385777853128 "
#69
0!
r6.916006812042827 "
1#
#70
1!
r6.941552205564316 "
#71
0!
r6.967020949929198 "
0#
#72
1!
r6.992412039675057 "
#73
0!
r7.017724472405146 "
1#
#74
1!
r7.04295724882796 "
#75
0!
r7.068109372796695 "
0#
#76
1!
r7.093179851348562 "
#77
0!
r7.118167694743997 "
1#
#78
1!
r7.143071916505725 "
#79
0!
r7.167891533457719 "
0#
#80
1!
r7.192625565763995 "
#81
0!
r7.217273036967311 "
1#
#82
1!
r7.241832974027709 "
#83
0!
r7.266304407360924 "
0#
#84
1!
r7.290686370876671 "
#85
0!
r7.314977902016778 "
1#
#86
1!
r7.339178041793193 "
#87
0!
r7.363285834825831 "
0#
#88
1!
r7.387300329380303 "
#89
0!
r7.411220577405485 "
1#
#90
1!
r7.435045634570942 "
#91
0!
r7.458774560304211 "
0#
#92
1!
r7.482406417827937 "
#93
0!
r7.505940274196846 "
1#
#94
1!
r7.529375200334588 "
#95
0!
r7.552710271070405 "
0#
#96
1!
r7.575944565175659 "
#97
0!
r7.599077165400205 "
1#
#98
1!
r7.622107158508593 "
#99
0!
r7.645033635316129 "
0#
#100
1!
r7.667855690724767 "
#101
0!
r7.690572423758835 "
1#
#102
1!
r7.713182937600611 "
#103
0!
r7.735686339625724 "
0#
#104
1!
r7.758081741438394 "
#105
0!
r7.780368258906504 "
1#
#106
1!
r7.802545012196506 "
#107
0!
r7.824611125808152 "
0#
#108
1!
r7.846565728609059 "
#109
0!
r7.868407953869103 "
1#
#110
1!
r7.89013693929463 "
#111
0!
r7.911751827062499 "
0#
#112
1!
r7.933251763853955 "
#113
0!
r7.954635900888304 "
1#
#114
1!
r7.975903393956433 "
#115
0!
r7.997053403454133 "
0#
#116
1!
r8.018085094415241 "
#117
0!
r8.038997636544611 "
1#
#118
1!
r8.059790204250886 "
#119
0!
r8.0804619766791 "
0#
b01111000 $
b10101010101100111001110111101111 %
1'
#120
1!
r8.101012137743069 "
0'
#121
0!
r8.121439876157623 "
1#
#122
1!
r8.141744385470627 "
#123
0!
r8.161924864094821 "
0#
#124
1!
r8.181980515339465 "
#125
0!
r8.201910547441784 "
1#
#126
1!
r8.22171417359824 "
#127
0!
r8.24139061199558 "
0#
#128
1!
r8.260939085841709 "
#129
0!
r8.280358823396352 "
1#
#130
1!
r8.299649058001521 "
#131
0!
r8.318809028111783 "
0#
#132
1!
r8.337837977324327 "
#133
0!
r8.35673515440882 "
1#
#134
1!
r8.375499813337068 "
#135
0!
r8.394131213312466 "
0#
#136
1!
r8.412628618799248 "
#137
0!
r8.430991299551515 "
1#
#138
1!
r8.449218530642074 "
#139
0!
r8.467309592491052 "
0#
#140
1!
r8.485263770894303 "
#141
0!
r8.503080357051605 "
1#
#142
1!
r8.520758647594647 "
#143
0!
r8.538297944614785 "
0#
#144
1!
r8.555697555690607 "
#145
0!
r8.57295679391526 "
1#
#146
1!
r8.590074977923571 "
#147
0!
r8.607051431918944 "
0#
#148
1!
r8.623885485700049 "
#149
0!
r8.640576474687263 "
1#
#150
1!
r8.657123739948924 "
#151
0!
r8.673526628227329 "
0#
#152
1!
r8.689784491964534 "
#153
0!
r8.705896689327924 "
1#
#154
1!
r8.721862584235527 "
#155
0!
r8.737681546381157 "
0#
#156
1!
r8.75335295125927 "
#157
0!
r8.768876180189638 "
1#
#158
1!
r8.78425062034176 "
#159
0!
r8.799475664759068 "
0#
#160
1!
r8.814550712382875 "
#161
0!
r8.829475168076113 "
1#
#162
1!
r8.844248442646828 "
#163
0!
r8.858869952871435 "
0#
#164
1!
r8.873339121517747 "
#165
0!
r8.887655377367759 "
1#
#166
1!
r8.901818155240205 "
#167
0!
r8.915826896012867 "
0#
#168
1!
r8.929681046644641 "
#169
0!
r8.943380060197386 "
1#
#170
1!
r8.956923395857503 "
#171
0!
r8.970310518957289 "
0#
#172
1!
r8.983540900996047 "
#173
0!
r8.996614019660951 "
1#
#174
1!
r9.009529358847654 "
#175
0!
r9.022286408680687 "
0#
#176
1!
r9.034884665533561 "
#177
0!
r9.04732363204867 "
1#
#178
1!
r9.059602817156913 "
#179
0!
r9.071721736097089 "
0#
#180
1!
r9.083679910435027 "
#181
0!
r9.095476868082482 "
1#
#182
1!
r9.107112143315764 "
#183
0!
r9.118585276794128 "
0#
#184
1!
r9.129895815577914 "
#185
0!
r9.141043313146417 "
1#
#186
1!
r9.152027329415517 "
#187
0!
r9.162847430755061 "
0#
#188
1!
r9.173503190005977 "
#189
0!
r9.183994186497131 "
1#
#190
1!
r9.19432000606195 "
#191
0!
r9.204480241054755 "
0#
#192
1!
r9.214474490366865 "
#193
0!
r9.224302359442433 "
1#
#194
1!
r9.233963460294014 "
#195
0!
r9.243457411517891 "
0#
#196
1!
r9.252783838309121 "
#197
0!
r9.26194237247635 "
1#
#198
1!
r9.270932652456326 "
#199
0!
r9.279754323328191 "
0#
#200
1!
r9.288407036827484 "
#201
0!
r9.296890451359893 "
1#
#202
1!
r9.305204232014738 "
#203
0!
r9.313348050578192 "
0#
#204
1!
r9.321321585546244 "
#205
0!
r9.329124522137388 "
1#
#206
1!
r9.336756552305044 "
#207
0!
r9.344217374749732 "
0#
#208
1!
r9.351506694930958 "
#209
0!
r9.35862422507884 "
1#
#210
1!
r9.365569684205477 "
#211
0!
r9.372342798116033 "
0#
#212
1!
r9.37894329941957 "
#213
0!
r9.385370927539597 "
1#
#214
1!
r9.391625428724364 "
#215
0!
r9.397706556056871 "
0#
#216
1!
r9.403614069464624 "
#217
0!
r9.40934773572911 "
1#
#218
1!
r9.414907328495003 "
#219
0!
r9.4202926282791 "
0#
b011011100 $
b0111000111001011101011011010011 %
1'
#220
1!
r9.425503422478984 "
0'
#221
0!
r9.430539505381425 "
1#
#222
1!
r9.435400678170492 "
#223
0!
r9.440086748935407 "
0#
#224
1!
r9.44459753267812 "
#225
0!
r9.448932851320613 "
1#
#226
1!
r9.45309253371193 "
#227
0!
r9.45707641563493 "
0#
#228
1!
r9.460884339812779 "
#229
0!
r9.464516155915151 "
1#
#230
1!
r9.467971720564162 "
#231
0!
r9.471250897340038 "
0#
#232
1!
r9.474353556786495 "
#233
0!
r9.47727957641585 "
1#
#234
1!
r9.48002884071386 "
#235
0!
r9.482601241144277 "
0#
#236
1!
r9.484996676153134 "
#237
0!
r9.487215051172763 "
1#
#238
1!
r9.489256278625515 "
#239
0!
r9.491120277927223 "
0#
#240
1!
r9.492806975490389 "
#241
0!
r9.494316304727079 "
1#
#242
1!
r9.495648206051561 "
#243
0!
r9.496802626882651 "
0#
#244
1!
r9.497779521645793 "
#245
0!
r9.49857885177485 "
1#
#246
1!
r9.499200585713641 "
#247
0!
r9.499644698917173 "
0#
#248
1!
r9.499911173852617 "
#249
0!
r9.5 "
1#
#250
1!
r9.499911173852617 "
#251
0!
r9.499644698917173 "
0#
#252
1!
r9.499200585713641 "
#253
0!
r9.49857885177485 "
1#
#254
1!
r9.497779521645793 "
#255
0!
r9.496802626882651 "
0#
#256
1!
r9.495648206051561 "
#257
0!
r9.494316304727079 "
1#
#258
1!
r9.492806975490389 "
#259
0!
r9.491120277927223 "
0#
#260
1!
r9.489256278625515 "
#261
0!
r9.487215051172763 "
1#
#262
1!
r9.484996676153134 "
#263
0!
r9.482601241144277 "
0#
#264
1!
r9.48002884071386 "
#265
0!
r9.47727957641585 "
1#
#266
1!
r9.474353556786495 "
#267
0!
r9.471250897340038 "
0#
#268
1!
r9.467971720564162 "
#269
0!
r9.464516155915149 "
1#
#270
1!
r9.460884339812779 "
#271
0!
r9.45707641563493 "
0#
#272
1!
r9.45309253371193 "
#273
0!
r9.448932851320613 "
1#
#274
1!
r9.44459753267812 "
#275
0!
r9.440086748935407 "
0#
#276
1!
r9.435400678170492 "
#277
0!
r9.430539505381425 "
1#
#278
1!
r9.425503422478984 "
#279
0!
r9.4202926282791 "
0#
#280
1!
r9.414907328495003 "
#281
0!
r9.40934773572911 "
1#
#282
1!
r9.403614069464624 "
#283
0!
r9.397706556056871 "
0#
#284
1!
r9.391625428724364 "
#285
0!
r9.385370927539597 "
1#
#286
1!
r9.37894329941957 "
#287
0!
r9.372342798116033 "
0#
#288
1!
r9.365569684205475 "
#289
0!
r9.35862422507884 "
1#
#290
1!
r9.351506694930958 "
#291
0!
r9.344217374749732 "
0#
#292
1!
r9.336756552305044 "
#293
0!
r9.329124522137386 "
1#
#294
1!
r9.321321585546244 "
#295
0!
r9.313348050578192 "
0#
#296
1!
r9.305204232014738 "
#297
0!
r9.296890451359893 "
1#
#298
1!
r9.288407036827484 "
#299
0!
r9.279754323328191 "
0#
#300
1!
r9.270932652456327 "
#301
0!
r9.261942372476348 "
1#
#302
1!
r9.252783838309123 "
#303
0!
r9.243457411517891 "
0#
#304
1!
r9.233963460294014 "
#305
0!
r9.224302359442433 "
1#
#306
1!
r9.214474490366865 "
#307
0!
r9.204480241054755 "
0#
#308
1!
r9.19432000606195 "
#309
0!
r9.183994186497131 "
1#
#310
1!
r9.173503190005977 "
#311
0!
r9.162847430755061 "
0#
#312
1!
r9.152027329415517 "
#313
0!
r9.141043313146415 "
1#
#314
1!
r9.129895815577916 "
#315
0!
r9.118585276794128 "
0#
#316
1!
r9.107112143315762 "
#317
0!
r9.09547686808248 "
1#
#318
1!
r9.083679910435025 "
#319
0!
r9.071721736097087 "
0#
b0101000000 $
b1000111000110000000111110110111 %
1'
#320
1!
r9.059602817156913 "
0'
#321
0!
r9.04732363204867 "
1#
#322
1!
r9.034884665533562 "
#323
0!
r9.022286408680687 "
0#
#324
1!
r9.009529358847654 "
#325
0!
r8.996614019660951 "
1#
#326
1!
r8.983540900996049 "
#327
0!
r8.970310518957289 "
0#
#328
1!
r8.956923395857503 "
#329
0!
r8.943380060197386 "
1#
#330
1!
r8.929681046644641 "
#331
0!
r8.915826896012867 "
0#
#332
1!
r8.901818155240205 "
#333
0!
r8.887655377367759 "
1#
#334
1!
r8.873339121517747 "
#335
0!
r8.858869952871435 "
0#
#336
1!
r8.844248442646828 "
#337
0!
r8.829475168076112 "
1#
#338
1!
r8.814550712382875 "
#339
0!
r8.799475664759068 "
0#
#340
1!
r8.784250620341762 "
#341
0!
r8.768876180189638 "
1#
#342
1!
r8.75335295125927 "
#343
0!
r8.737681546381157 "
0#
#344
1!
r8.721862584235527 "
#345
0!
r8.705896689327924 "
1#
#346
1!
r8.689784491964534 "
#347
0!
r8.673526628227327 "
0#
#348
1!
r8.657123739948922 "
#349
0!
r8.640576474687263 "
1#
#350
1!
r8.623885485700049 "
#351
0!
r8.607051431918944 "
0#
#352
1!
r8.590074977923571 "
#353
0!
r8.572956793915258 "
1#
#354
1!
r8.555697555690607 "
#355
0!
r8.538297944614785 "
0#
#356
1!
r8.520758647594647 "
#357
0!
r8.503080357051605 "
1#
#358
1!
r8.485263770894301 "
#359
0!
r8.467309592491052 "
0#
#360
1!
r8.449218530642074 "
#361
0!
r8.430991299551515 "
1#
#362
1!
r8.41262861879925 "
#363
0!
r8.394131213312466 "
0#
#364
1!
r8.375499813337068 "
#365
0!
r8.356735154408819 "
1#
#366
1!
r8.337837977324325 "
#367
0!
r8.318809028111783 "
0#
#368
1!
r8.299649058001521 "
#369
0!
r8.280358823396352 "
1#
#370
1!
r8.260939085841709 "
#371
0!
r8.24139061199558 "
0#
#372
1!
r8.22171417359824 "
#373
0!
r8.201910547441784 "
1#
#374
1!
r8.181980515339465 "
#375
0!
r8.16192486409482 "
0#
#376
1!
r8.141744385470627 "
#377
0!
r8.121439876157622 "
1#
#378
1!
r8.101012137743067 "
#379
0!
r8.0804619766791 "
0#
#380
1!
r8.059790204250886 "
#381
0!
r8.038997636544611 "
1#
#382
1!
r8.018085094415241 "
#383
0!
r7.997053403454132 "
0#
#384
1!
r7.975903393956433 "
#385
0!
r7.954635900888302 "
1#
#386
1!
r7.933251763853955 "
#387
0!
r7.911751827062499 "
0#
#388
1!
r7.890136939294631 "
#389
0!
r7.868407953869104 "
1#
#390
1!
r7.846565728609059 "
#391
0!
r7.824611125808152 "
0#
#392
1!
r7.802545012196506 "
#393
0!
r7.780368258906504 "
1#
#394
1!
r7.758081741438394 "
#395
0!
r7.735686339625724 "
0#
#396
1!
r7.71318293760061 "
#397
0!
r7.690572423758834 "
1#
#398
1!
r7.667855690724767 "
#399
0!
r7.64503363531613 "
0#
#400
1!
r7.622107158508593 "
#401
0!
r7.599077165400205 "
1#
#402
1!
r7.575944565175659 "
#403
0!
r7.552710271070404 "
0#
#404
1!
r7.529375200334587 "
#405
0!
r7.505940274196846 "
1#
#406
1!
r7.482406417827935 "
#407
0!
r7.458774560304212 "
0#
#408
1!
r7.435045634570942 "
#409
0!
r7.411220577405485 "
1#
#410
1!
r7.387300329380303 "
#411
0!
r7.36328583482583 "
0#
#412
1!
r7.339178041793194 "
#413
0!
r7.314977902016778 "
1#
#414
1!
r7.29068637087667 "
#415
0!
r7.266304407360923 "
0#
#416
1!
r7.241832974027709 "
#417
0!
r7.217273036967312 "
1#
#418
1!
r7.192625565763995 "
#419
0!
r7.16789153345772 "
0#
b0110100100 $
b01010101010010100100100010011011 %
1'
#420
1!
r7.143071916505725 "
0'
#421
0!
r7.118167694743995 "
1#
#422
1!
r7.093179851348562 "
#423
0!
r7.068109372796695 "
0#
#424
1!
r7.04295724882796 "
#425
0!
r7.017724472405144 "
1#
#426
1!
r6.992412039675057 "
#427
0!
r6.967020949929198 "
0#
#428
1!
r6.941552205564315 "
#429
0!
r6.916006812042828 "
1#
#430
1!
r6.890385777853128 "
#431
0!
r6.864690114469779 "
0#
#432
1!
r6.838920836313569 "
#433
0!
r6.81307896071148 "
1#
#434
1!
r6.787165507856512 "
#435
0!
r6.76118150076741 "
0#
#436
1!
r6.735127965248284 "
#437
0!
r6.709005929848105 "
1#
#438
1!
r6.682816425820102 "
#439
0!
r6.656560487081052 "
0#
#440
1!
r6.630239150170454 "
#441
0!
r6.603853454209629 "
1#
#442
1!
r6.577404440860664 "
#443
0!
r6.550893154285327 "
0#
#444
1!
r6.524320641103811 "
#445
0!
r6.497687950353439 "
1#
#446
1!
r6.470996133447242 "
#447
0!
r6.444246244132442 "
0#
#448
1!
r6.417439338448872 "
#449
0!
r6.390576474687264 "
1#
#450
1!
r6.363658713347483 "
#451
0!
r6.336687117096657 "
0#
#452
1!
r6.309662750727221 "
#453
0!
r6.282586681114893 "
1#
#454
1!
r6.255459977176531 "
#455
0!
r6.228283709827963 "
0#
#456
1!
r6.201058951941691 "
#457
0!
r6.173786778304535 "
1#
#458
1!
r6.14646826557522 "
#459
0!
r6.119104492241846 "
0#
#460
1!
r6.091696538579333 "
#461
0!
r6.064245486606761 "
1#
#462
1!
r6.036752420044657 "
#463
0!
r6.009218424272214 "
0#
#464
1!
r5.981644586284441 "
#465
0!
r5.954031994649247 "
1#
#466
1!
r5.926381739464467 "
#467
0!
r5.898694912314832 "
0#
#468
1!
r5.870972606228872 "
#469
0!
r5.843215915635761 "
1#
#470
1!
r5.815425936322118 "
#471
0!
r5.787603765388742 "
0#
#472
1!
r5.759750501207302 "
#473
0!
r5.731867243376975 "
1#
#474
1!
r5.703955092681039 "
#475
0!
r5.676015151043407 "
0#
#476
1!
r5.648048521485134 "
#477
0!
r5.620056308080871 "
1#
#478
1!
r5.592039615915272 "
#479
0!
r5.563999551039369 "
0#
#480
1!
r5.535937220426913 "
#481
0!
r5.507853731930668 "
1#
#482
1!
r5.479750194238668 "
#483
0!
r5.451627716830465 "
0#
#484
1!
r5.423487409933315 "
#485
0!
r5.395330384478344 "
1#
#486
1!
r5.367157752056709 "
#487
0!
r5.338970624875697 "
0#
#488
1!
r5.310770115714828 "
#489
0!
r5.282557337881909 "
1#
#490
1!
r5.254333405169109 "
#491
0!
r5.226099431808963 "
0#
#492
1!
r5.197856532430392 "
#493
0!
r5.169605822014705 "
1#
#494
1!
r5.141348415851577 "
#495
0!
r5.11308542949502 "
0#
#496
1!
r5.084817978719336 "
#497
0!
r5.056547179475086 "
1#
#498
1!
r5.028274147845016 "
#499
0!
r4.999999999999996 "
0#
#500
1!
r4.971725852154985 "
#501
0!
r4.943452820524914 "
1#
#502
1!
r4.915182021280663 "
#503
0!
r4.886914570504979 "
0#
#504
1!
r4.858651584148424 "
#505
0!
r4.830394177985296 "
1#
#506
1!
r4.802143467569604 "
#507
0!
r4.773900568191038 "
0#
#508
1!
r4.74566659483089 "
#509
0!
r4.71744266211809 "
1#
#510
1!
r4.689229884285174 "
#511
0!
r4.661029375124302 "
0#
#512
1!
r4.63284224794329 "
#513
0!
r4.604669615521653 "
1#
#514
1!
r4.576512590066686 "
#515
0!
r4.548372283169534 "
0#
#516
1!
r4.520249805761331 "
#517
0!
r4.492146268069333 "
1#
#518
1!
r4.464062779573086 "
#519
0!
r4.43600044896063 "
0#
b01000001000 $
b100011011111001000000101111111 %
1'
#520
1!
r4.407960384084729 "
0'
#521
0!
r4.379943691919128 "
1#
#522
1!
r4.351951478514865 "
#523
0!
r4.323984848956594 "
0#
#524
1!
r4.296044907318961 "
#525
0!
r4.268132756623024 "
1#
#526
1!
r4.240249498792698 "
#527
0!
r4.212396234611258 "
0#
#528
1!
r4.184574063677881 "
#529
0!
r4.156784084364238 "
1#
#530
1!
r4.129027393771128 "
#531
0!
r4.101305087685168 "
0#
#532
1!
r4.073618260535534 "
#533
0!
r4.045968005350755 "
1#
#534
1!
r4.018355413715558 "
#535
0!
r3.990781575727785 "
0#
#536
1!
r3.963247579955342 "
#537
0!
r3.935754513393238 "
1#
#538
1!
r3.908303461420666 "
#539
0!
r3.880895507758153 "
0#
#540
1!
r3.853531734424779 "
#541
0!
r3.826213221695464 "
1#
#542
1!
r3.79894104805831 "
#543
0!
r3.771716290172036 "
0#
#544
1!
r3.744540022823468 "
#545
0!
r3.717413318885107 "
1#
#546
1!
r3.690337249272776 "
#547
0!
r3.663312882903346 "
0#
#548
1!
r3.636341286652516 "
#549
0!
r3.609423525312735 "
1#
#550
1!
r3.582560661551127 "
#551
0!
r3.555753755867557 "
0#
#552
1!
r3.529003866552759 "
#553
0!
r3.50231204964656 "
1#
#554
1!
r3.475679358896188 "
#555
0!
r3.449106845714673 "
0#
#556
1!
r3.422595559139333 "
#557
0!
r3.396146545790375 "
1#
#558
1!
r3.369760849829543 "
#559
0!
r3.343439512918947 "
0#
#560
1!
r3.317183574179898 "
#561
0!
r3.290994070151894 "
1#
#562
1!
r3.264872034751715 "
#563
0!
r3.238818499232588 "
0#
#564
1!
r3.21283449214349 "
#565
0!
r3.186921039288517 "
1#
#566
1!
r3.161079163686428 "
#567
0!
r3.135309885530224 "
0#
#568
1!
r3.10961422214687 "
#569
0!
r3.083993187957173 "
1#
#570
1!
r3.058447794435684 "
#571
0!
r3.032979050070803 "
0#
#572
1!
r3.007587960324942 "
#573
0!
r2.982275527594854 "
1#
#574
1!
r2.957042751172042 "
#575
0!
r2.931890627203303 "
0#
#576
1!
r2.906820148651436 "
#577
0!
r2.881832305256002 "
1#
#578
1!
r2.856928083494275 "
#579
0!
r2.832108466542281 "
0#
#580
1!
r2.807374434236004 "
#581
0!
r2.782726963032689 "
1#
#582
1!
r2.75816702597229 "
#583
0!
r2.733695592639075 "
0#
#584
1!
r2.709313629123331 "
#585
0!
r2.685022097983219 "
1#
#586
1!
r2.660821958206805 "
#587
0!
r2.636714165174167 "
0#
#588
1!
r2.612699670619698 "
#589
0!
r2.588779422594515 "
1#
#590
1!
r2.564954365429057 "
#591
0!
r2.541225439695789 "
0#
#592
1!
r2.517593582172063 "
#593
0!
r2.494059725803152 "
1#
#594
1!
r2.470624799665414 "
#595
0!
r2.447289728929597 "
0#
#596
1!
r2.424055434824339 "
#597
0!
r2.400922834599795 "
1#
#598
1!
r2.377892841491408 "
#599
0!
r2.35496636468387 "
0#
#600
1!
r2.332144309275232 "
#601
0!
r2.309427576241167 "
1#
#602
1!
r2.286817062399391 "
#603
0!
r2.264313660374274 "
0#
#604
1!
r2.241918258561607 "
#605
0!
r2.219631741093496 "
1#
#606
1!
r2.197454987803491 "
#607
0!
r2.175388874191847 "
0#
#608
1!
r2.153434271390941 "
#609
0!
r2.131592046130895 "
1#
#610
1!
r2.109863060705369 "
#611
0!
r2.088248172937502 "
0#
#612
1!
r2.066748236146047 "
#613
0!
r2.045364099111694 "
1#
#614
1!
r2.024096606043567 "
#615
0!
r2.002946596545868 "
0#
#616
1!
r1.981914905584759 "
#617
0!
r1.961002363455389 "
1#
#618
1!
r1.940209795749114 "
#619
0!
r1.919538023320901 "
0#
b01001101100 $
b01110001101011101011101001100011 %
1'
#620
1!
r1.89898786225693 "
0'
#621
0!
r1.878560123842379 "
1#
#622
1!
r1.858255614529374 "
#623
0!
r1.838075135905177 "
0#
#624
1!
r1.818019484660536 "
#625
0!
r1.798089452558216 "
1#
#626
1!
r1.77828582640176 "
#627
0!
r1.758609388004418 "
0#
#628
1!
r1.73906091415829 "
#629
0!
r1.719641176603649 "
1#
#630
1!
r1.700350941998478 "
#631
0!
r1.681190971888218 "
0#
#632
1!
r1.662162022675674 "
#633
0!
r1.643264845591178 "
1#
#634
1!
r1.624500186662932 "
#635
0!
r1.605868786687533 "
0#
#636
1!
r1.587371381200753 "
#637
0!
r1.569008700448482 "
1#
#638
1!
r1.550781469357926 "
#639
0!
r1.532690407508948 "
0#
#640
1!
r1.514736229105696 "
#641
0!
r1.496919642948394 "
1#
#642
1!
r1.479241352405353 "
#643
0!
r1.461702055385216 "
0#
#644
1!
r1.444302444309393 "
#645
0!
r1.427043206084742 "
1#
#646
1!
r1.40992502207643 "
#647
0!
r1.392948568081054 "
0#
#648
1!
r1.37611451429995 "
#649
0!
r1.359423525312737 "
1#
#650
1!
r1.342876260051076 "
#651
0!
r1.326473371772672 "
0#
#652
1!
r1.310215508035466 "
#653
0!
r1.294103310672076 "
1#
#654
1!
r1.278137415764473 "
#655
0!
r1.262318453618843 "
0#
#656
1!
r1.24664704874073 "
#657
0!
r1.231123819810362 "
1#
#658
1!
r1.215749379658239 "
#659
0!
r1.200524335240931 "
0#
#660
1!
r1.185449287617125 "
#661
0!
r1.170524831923886 "
1#
#662
1!
r1.155751557353171 "
#663
0!
r1.141130047128565 "
0#
#664
1!
r1.126660878482251 "
#665
0!
r1.112344622632242 "
1#
#666
1!
r1.098181844759794 "
#667
0!
r1.084173103987135 "
0#
#668
1!
r1.070318953355359 "
#669
0!
r1.056619939802614 "
1#
#670
1!
r1.043076604142496 "
#671
0!
r1.02968948104271 "
0#
#672
1!
r1.016459099003952 "
#673
0!
r1.003385980339049 "
1#
#674
1!
r0.9904706411523447 "
#675
0!
r0.9777135913193122 "
0#
#676
1!
r0.9651153344664385 "
#677
0!
r0.9526763679513293 "
1#
#678
1!
r0.9403971828430873 "
#679
0!
r0.9282782639029108 "
0#
#680
1!
r0.9163200895649739 "
#681
0!
r0.9045231319175198 "
1#
#682
1!
r0.8928878566842373 "
#683
0!
r0.8814147232058716 "
0#
#684
1!
r0.8701041844220843 "
#685
0!
r0.858956686853583 "
1#
#686
1!
r0.8479726705844826 "
#687
0!
r0.8371525692449389 "
0#
#688
1!
r0.8264968099940235 "
#689
0!
r0.8160058135028683 "
1#
#690
1!
r0.8056799939380515 "
#691
0!
r0.7955197589452467 "
0#
#692
1!
r0.7855255096331346 "
#693
0!
r0.7756976405575662 "
1#
#694
1!
r0.7660365397059854 "
#695
0!
r0.7565425884821089 "
0#
#696
1!
r0.7472161616908775 "
#697
0!
r0.7380576275236503 "
1#
#698
1!
r0.7290673475436753 "
#699
0!
r0.7202456766718095 "
0#
#700
1!
r0.7115929631725146 "
#701
0!
r0.7031095486401071 "
1#
#702
1!
r0.6947957679852621 "
#703
0!
r0.6866519494218082 "
0#
#704
1!
r0.6786784144537554 "
#705
0!
r0.670875477862614 "
1#
#706
1!
r0.6632434476949554 "
#707
0!
r0.655782625250267 "
0#
#708
1!
r0.6484933050690422 "
#709
0!
r0.6413757749211593 "
1#
#710
1!
r0.6344303157945239 "
#711
0!
r0.6276572018839666 "
0#
#712
1!
r0.6210567005804313 "
#713
0!
r0.6146290724604029 "
1#
#714
1!
r0.6083745712756361 "
#715
0!
r0.6022934439431298 "
0#
#716
1!
r0.5963859305353756 "
#717
0!
r0.5906522642708882 "
1#
#718
1!
r0.5850926715049969 "
#719
0!
r0.5797073717209011 "
0#
b01011010000 $
b1000001111001101000111 %
1'
#720
1!
r0.5744965775210158 "
0'
#721
0!
r0.5694604946185757 "
1#
#722
1!
r0.5645993218295091 "
#723
0!
r0.559913251064593 "
0#
#724
1!
r0.5554024673218798 "
#725
0!
r0.5510671486793868 "
1#
#726
1!
r0.5469074662880704 "
#727
0!
r0.5429235843650693 "
0#
#728
1!
r0.5391156601872202 "
#729
0!
r0.5354838440848502 "
1#
#730
1!
r0.5320282794358384 "
#731
0!
r0.5287491026599618 "
0#
#732
1!
r0.5256464432135051 "
#733
0!
r0.5227204235841487 "
1#
#734
1!
r0.5199711592861398 "
#735
0!
r0.5173987588557241 "
0#
#736
1!
r0.5150033238468659 "
#737
0!
r0.5127849488272371 "
1#
#738
1!
r0.5107437213744861 "
#739
0!
r0.5088797220727779 "
0#
#740
1!
r0.5071930245096121 "
#741
0!
r0.5056836952729213 "
1#
#742
1!
r0.5043517939484392 "
#743
0!
r0.5031973731173478 "
0#
#744
1!
r0.5022204783542081 "
#745
0!
r0.50142114822515 "
1#
#746
1!
r0.5007994142863597 "
#747
0!
r0.5003553010828279 "
0#
#748
1!
r0.5000888261473833 "
#749
0!
r0.5 "
1#
#750
1!
r0.5000888261473833 "
#751
0!
r0.5003553010828279 "
0#
#752
1!
r0.5007994142863597 "
#753
0!
r0.50142114822515 "
1#
#754
1!
r0.5022204783542081 "
#755
0!
r0.5031973731173487 "
0#
#756
1!
r0.5043517939484392 "
#757
0!
r0.5056836952729213 "
1#
#758
1!
r0.5071930245096121 "
#759
0!
r0.5088797220727779 "
0#
#760
1!
r0.5107437213744861 "
#761
0!
r0.5127849488272371 "
1#
#762
1!
r0.5150033238468659 "
#763
0!
r0.5173987588557241 "
0#
#764
1!
r0.5199711592861398 "
#765
0!
r0.5227204235841496 "
1#
#766
1!
r0.5256464432135051 "
#767
0!
r0.5287491026599627 "
0#
#768
1!
r0.5320282794358384 "
#769
0!
r0.5354838440848493 "
1#
#770
1!
r0.5391156601872202 "
#771
0!
r0.5429235843650702 "
0#
#772
1!
r0.5469074662880704 "
#773
0!
r0.5510671486793868 "
1#
#774
1!
r0.5554024673218807 "
#775
0!
r0.5599132510645939 "
0#
#776
1!
r0.5645993218295091 "
